simulation/qsim/radar.msim.vcd
$comment
	File created using the following command:
		vcd file radar.msim.vcd -direction
$end
$date
	Fri Jun 07 12:17:08 2024
$end
$version
	ModelSim Version 10.1d
$end
$timescale
	1ps
$end
$scope module radar_vlg_vec_tst $end
$var reg 1 ! areset $end
$var reg 1 " clk $end
$var reg 1 # enable $end
$var reg 1 $ start $end
$var wire 1 % error $end
$var wire 1 & ledblue $end
$var wire 1 ' ledgreen $end
$var wire 1 ( ledred $end
$var wire 1 ) q_cnt [3] $end
$var wire 1 * q_cnt [2] $end
$var wire 1 + q_cnt [1] $end
$var wire 1 , q_cnt [0] $end
$var wire 1 - q_reg [3] $end
$var wire 1 . q_reg [2] $end
$var wire 1 / q_reg [1] $end
$var wire 1 0 q_reg [0] $end
$var wire 1 1 reset_o $end
$var wire 1 2 state [2] $end
$var wire 1 3 state [1] $end
$var wire 1 4 state [0] $end
$var wire 1 5 store_o $end
$var wire 1 6 windows_o $end
$var wire 1 7 sampler $end
$scope module i1 $end
$var wire 1 8 gnd $end
$var wire 1 9 vcc $end
$var wire 1 : unknown $end
$var tri1 1 ; devclrn $end
$var tri1 1 < devpor $end
$var tri1 1 = devoe $end
$var wire 1 > error~output_o $end
$var wire 1 ? ledred~output_o $end
$var wire 1 @ ledblue~output_o $end
$var wire 1 A ledgreen~output_o $end
$var wire 1 B reset_o~output_o $end
$var wire 1 C windows_o~output_o $end
$var wire 1 D store_o~output_o $end
$var wire 1 E q_cnt[3]~output_o $end
$var wire 1 F q_cnt[2]~output_o $end
$var wire 1 G q_cnt[1]~output_o $end
$var wire 1 H q_cnt[0]~output_o $end
$var wire 1 I q_reg[3]~output_o $end
$var wire 1 J q_reg[2]~output_o $end
$var wire 1 K q_reg[1]~output_o $end
$var wire 1 L q_reg[0]~output_o $end
$var wire 1 M state[2]~output_o $end
$var wire 1 N state[1]~output_o $end
$var wire 1 O state[0]~output_o $end
$var wire 1 P enable~input_o $end
$var wire 1 Q enable~inputclkctrl_outclk $end
$var wire 1 R areset~input_o $end
$var wire 1 S clk~input_o $end
$var wire 1 T clk~inputclkctrl_outclk $end
$var wire 1 U start~input_o $end
$var wire 1 V inst|current.rst_in_s~feeder_combout $end
$var wire 1 W inst|check_error~0_combout $end
$var wire 1 X inst|current.rst_in_s~q $end
$var wire 1 Y inst|Selector3~0_combout $end
$var wire 1 Z inst|current.window_s~q $end
$var wire 1 [ inst|Selector4~0_combout $end
$var wire 1 \ inst|current.store_s~q $end
$var wire 1 ] inst|Selector0~0_combout $end
$var wire 1 ^ inst|current.wait4start_s~q $end
$var wire 1 _ inst|Selector2~0_combout $end
$var wire 1 ` inst|current.reset_s~q $end
$var wire 1 a inst|nx_out~0_combout $end
$var wire 1 b inst|reset_o~combout $end
$var wire 1 c inst|reset_o~clkctrl_outclk $end
$var wire 1 d inst2|q[0]~13_combout $end
$var wire 1 e inst|nx_out~1_combout $end
$var wire 1 f inst|window_o~combout $end
$var wire 1 g inst11|count_val[0]~5_combout $end
$var wire 1 h inst2|q[0]~15_combout $end
$var wire 1 i inst|nx_out~2_combout $end
$var wire 1 j inst|store_o~combout $end
$var wire 1 k inst2|load_q~0_combout $end
$var wire 1 l inst2|q[0]~_emulated_q $end
$var wire 1 m inst2|q[0]~14_combout $end
$var wire 1 n inst3|LessThan0~0_combout $end
$var wire 1 o inst2|reg~0_combout $end
$var wire 1 p inst11|count_val[1]~4_combout $end
$var wire 1 q inst11|count_val[2]~2_combout $end
$var wire 1 r inst11|count_val[2]~3_combout $end
$var wire 1 s inst11|count_val[2]~0_combout $end
$var wire 1 t inst11|count_val[3]~1_combout $end
$var wire 1 u inst2|q[3]~1_combout $end
$var wire 1 v inst2|q[3]~3_combout $end
$var wire 1 w inst2|q[3]~_emulated_q $end
$var wire 1 x inst2|q[3]~2_combout $end
$var wire 1 y inst2|reg~2_combout $end
$var wire 1 z inst2|q[1]~9_combout $end
$var wire 1 { inst2|q[1]~11_combout $end
$var wire 1 | inst2|q[1]~_emulated_q $end
$var wire 1 } inst2|q[1]~10_combout $end
$var wire 1 ~ inst2|reg~1_combout $end
$var wire 1 !! inst2|q[2]~5_combout $end
$var wire 1 "! inst2|q[2]~7_combout $end
$var wire 1 #! inst2|q[2]~_emulated_q $end
$var wire 1 $! inst2|q[2]~6_combout $end
$var wire 1 %! inst3|gtout~0_combout $end
$var wire 1 &! inst3|gtout~1_combout $end
$var wire 1 '! inst4|ltout~0_combout $end
$var wire 1 (! inst4|ltout~1_combout $end
$var wire 1 )! inst|WideOr6~combout $end
$var wire 1 *! inst11|count_val [3] $end
$var wire 1 +! inst11|count_val [2] $end
$var wire 1 ,! inst11|count_val [1] $end
$var wire 1 -! inst11|count_val [0] $end
$var wire 1 .! inst|state [2] $end
$var wire 1 /! inst|state [1] $end
$var wire 1 0! inst|state [0] $end
$upscope $end
$upscope $end
$enddefinitions $end
#0
$dumpvars
1!
0"
1#
0$
0%
0&
x'
x(
0,
0+
0*
0)
x0
x/
x.
x-
01
04
03
02
05
06
x7
08
19
x:
1;
1<
1=
0>
x?
0@
xA
0B
0C
0D
0E
0F
0G
0H
xI
xJ
xK
xL
0M
0N
0O
1P
1Q
1R
0S
0T
0U
1V
1W
0X
0Y
0Z
0[
0\
1]
0^
0_
0`
0a
0b
0c
xd
0e
0f
0g
xh
0i
0j
0k
0l
xm
0n
0o
0p
1q
0r
0s
0t
xu
xv
0w
xx
0y
xz
x{
0|
x}
0~
x!!
x"!
0#!
x$!
x%!
x&!
x'!
x(!
1)!
0-!
0,!
0+!
0*!
z0!
0/!
z.!
$end
#10000
1"
1S
1T
07
#20000
0!
0"
0R
0S
0T
17
0W
#30000
1"
1S
1T
07
#40000
0"
0S
0T
17
1X
1^
0)!
1O
14
#50000
1"
1S
1T
07
#60000
0"
0S
0T
17
#70000
1$
1"
1U
1S
1T
07
1_
0]
#80000
0"
0S
0T
17
0^
1`
0_
1)!
1a
1Y
1/!
0O
1N
04
13
1b
1c
0!!
0z
0u
0d
1B
11
0$!
0}
0x
0m
0"!
0{
0v
0h
1'!
0%!
0J
0K
0I
0L
0.
0/
0-
00
1(!
0&!
1A
0?
1'
0(
#90000
1"
1S
1T
07
#100000
0"
0S
0T
17
1Z
0`
1e
0)!
0a
1O
14
1f
0b
0c
1g
1C
0B
16
01
#110000
1"
1S
1T
07
1-!
0q
1p
1h
0g
1H
1,
#120000
0"
0S
0T
17
#130000
1"
1S
1T
07
1,!
0-!
1{
1r
1q
0h
1g
1G
0H
1+
0,
0r
#140000
0"
0S
0T
17
#150000
0$
1"
0U
1S
1T
07
1[
0Y
1-!
1s
0q
0p
1h
0g
1H
1,
1r
#160000
0"
0S
0T
17
0Z
1\
0e
0[
1)!
1i
1]
1M
12
0/!
0O
0N
04
03
0f
1j
0s
0r
1p
1g
1k
0C
1D
06
15
#170000
1"
1S
1T
07
1|
1l
1}
1m
1K
1L
1/
10
#180000
0"
0S
0T
17
1^
0\
0)!
0i
0M
02
1O
14
0j
0k
0D
05
#190000
1"
1S
1T
07
#200000
0"
0S
0T
17
#210000
1"
1S
1T
07
#220000
0"
0S
0T
17
#230000
1$
1"
1U
1S
1T
07
1_
0]
#240000
0"
0S
0T
17
0^
1`
0_
1)!
1a
1Y
1/!
0O
1N
04
13
1b
1c
1B
11
0}
0m
0K
0L
0/
00
0l
0|
0-!
0,!
1q
0p
0h
0g
0{
0H
0G
0,
0+
#250000
1"
1S
1T
07
#260000
0"
0S
0T
17
1Z
0`
1e
0)!
0a
1O
14
1f
0b
0c
1g
1C
0B
16
01
#270000
1"
1S
1T
07
1-!
0q
1p
1h
0g
1H
1,
#280000
0"
0S
0T
17
#290000
1"
1S
1T
07
1,!
0-!
1{
1r
1q
0h
1g
1G
0H
1+
0,
0r
#300000
0"
0S
0T
17
#310000
1"
1S
1T
07
1-!
1s
0q
0p
1h
0g
1H
1,
1r
#320000
0"
0S
0T
17
#330000
1"
1S
1T
07
1+!
0,!
0-!
1"!
1t
0{
0s
1q
0h
1g
1F
0G
0H
1*
0+
0,
0t
#340000
0"
0S
0T
17
#350000
0$
1"
0U
1S
1T
07
1[
0Y
1-!
0q
1p
1h
0g
1H
1,
#360000
0"
0S
0T
17
0Z
1\
0e
0[
1)!
1i
1]
1M
12
0/!
0O
0N
04
03
0f
1j
0p
1g
1k
0C
1D
06
15
#370000
1"
1S
1T
07
1#!
1l
1$!
1m
1J
1L
1.
10
#380000
0"
0S
0T
17
1^
0\
0)!
0i
0M
02
1O
14
0j
0k
0D
05
#390000
1"
1S
1T
07
#400000
0"
0S
0T
17
#410000
1"
1S
1T
07
#420000
0"
0S
0T
17
#430000
1"
1S
1T
07
#440000
0"
0S
0T
17
#450000
1"
1S
1T
07
#460000
1$
0"
1U
0S
0T
17
1_
0]
#470000
1"
1S
1T
07
#480000
0"
0S
0T
17
0^
1`
0_
1)!
1a
1Y
1/!
0O
1N
04
13
1b
1c
1B
11
0$!
0m
0J
0L
0.
00
0l
0#!
0-!
0+!
1q
0h
0g
0"!
0r
0H
0F
0,
0*
#490000
1"
1S
1T
07
#500000
0"
0S
0T
17
1Z
0`
1e
0)!
0a
1O
14
1f
0b
0c
1g
1C
0B
16
01
#510000
1"
1S
1T
07
1-!
0q
1p
1h
0g
1H
1,
#520000
0"
0S
0T
17
#530000
1"
1S
1T
07
1,!
0-!
1{
1r
1q
0h
1g
1G
0H
1+
0,
0r
#540000
0"
0S
0T
17
#550000
1"
1S
1T
07
1-!
1s
0q
0p
1h
0g
1H
1,
1r
#560000
0"
0S
0T
17
#570000
1"
1S
1T
07
1+!
0,!
0-!
1"!
1t
0{
0s
1q
0h
1g
1F
0G
0H
1*
0+
0,
0t
#580000
0"
0S
0T
17
#590000
1"
1S
1T
07
1-!
0q
1p
1h
0g
1H
1,
#600000
0"
0S
0T
17
#610000
1"
1S
1T
07
1,!
0-!
1{
0r
1q
0h
1g
1G
0H
1+
0,
1r
#620000
0"
0S
0T
17
#630000
0$
1"
0U
1S
1T
07
1[
0Y
1-!
1s
0q
0p
1h
0g
1H
1,
1t
0r
#640000
0"
0S
0T
17
0Z
1\
0e
0[
1)!
1i
1]
1M
12
0/!
0O
0N
04
03
0f
1j
0s
1r
1p
1g
1k
0C
1D
06
15
0t
#650000
1"
1S
1T
07
1#!
1|
1l
1$!
1}
1m
0'!
1%!
1J
1K
1L
1.
1/
10
0(!
1&!
0A
1?
0'
1(
#660000
0"
0S
0T
17
1^
0\
0)!
0i
0M
02
1O
14
0j
0k
0D
05
#670000
1"
1S
1T
07
#680000
0"
0S
0T
17
#690000
1"
1S
1T
07
#700000
0"
0S
0T
17
#710000
1"
1S
1T
07
#720000
0"
0S
0T
17
#730000
1"
1S
1T
07
#740000
0"
0S
0T
17
#750000
1"
1S
1T
07
#760000
0"
0S
0T
17
#770000
1"
1S
1T
07
#780000
0"
0S
0T
17
#790000
1"
1S
1T
07
#800000
0"
0S
0T
17
#810000
1"
1S
1T
07
#820000
0"
0S
0T
17
#830000
1"
1S
1T
07
#840000
0"
0S
0T
17
#850000
1"
1S
1T
07
#860000
0"
0S
0T
17
#870000
1"
1S
1T
07
#880000
0"
0S
0T
17
#890000
1"
1S
1T
07
#900000
0"
0S
0T
17
#910000
1"
1S
1T
07
#920000
0"
0S
0T
17
#930000
1"
1S
1T
07
#940000
0"
0S
0T
17
#950000
1"
1S
1T
07
#960000
0"
0S
0T
17
#970000
1"
1S
1T
07
#980000
0"
0S
0T
17
#990000
1"
1S
1T
07
